{
  "task1":[
    {"baseEl":"5","rotate":"0"},
    {"baseEl":"1","rotate":"0"}
  ],
  "task2":[
    {"baseEl":"10","rotate":"0"},
    {"baseEl":"14","rotate":"0"}
  ],
  "task3":[
    {"baseEl":"11","rotate":"270"},
    {"baseEl":"3","rotate":"180"}
  ],
  "task4":[
    {"baseEl":"2","rotate":"0"},
    {"baseEl":"17","rotate":"270"}
  ],
  "task5":[
    {"baseEl":"5","rotate":"0"},
    {"baseEl":"7","rotate":"90"}
  ],
  "task6":[
    {"baseEl":"11","rotate":"0"},
    {"baseEl":"10","rotate":"180"}
  ],
  "task7":[
    {"baseEl":"9","rotate":"0"},
    {"baseEl":"8","rotate":"270"}
  ],
  "task8":[
    {"baseEl":"13","rotate":"0"},
    {"baseEl":"18","rotate":"0"}
  ],
  "task9":[
    {"baseEl":"4","rotate":"0"},
    {"baseEl":"12","rotate":"180"}
  ],
  "task10":[
    {"baseEl":"7","rotate":"0"},
    {"baseEl":"1","rotate":"0"}
  ],
  "task11":[
    {"baseEl":"17","rotate":"90"},
    {"baseEl":"10","rotate":"270"}
  ],
  "task12":[
    {"baseEl":"7","rotate":"90"},
    {"baseEl":"8","rotate":"270"}
  ],
  "task13":[
    {"baseEl":"4","rotate":"180"},
    {"baseEl":"9","rotate":"270"}
  ],
  "task14":[
    {"baseEl":"2","rotate":"180"},
    {"baseEl":"3","rotate":"180"}
  ],
  "task15":[
    {"baseEl":"6","rotate":"180"},
    {"baseEl":"4","rotate":"90"}
  ],
  "task16":[
    {"baseEl":"5","rotate":"0"},
    {"baseEl":"8","rotate":"0"}
  ],
  "task17":[
    {"baseEl":"14","rotate":"0"},
    {"baseEl":"6","rotate":"180"}
  ],
  "task18":[
    {"baseEl":"10","rotate":"180"},
    {"baseEl":"2","rotate":"180"}
  ],
  "task19":[
    {"baseEl":"18","rotate":"270"},
    {"baseEl":"9","rotate":"90"}
  ],
  "task20":[
    {"baseEl":"14","rotate":"0"},
    {"baseEl":"1","rotate":"0"},
    {"baseEl":"6","rotate":"0"}
  ],
  "task21":[
    {"baseEl":"12","rotate":"0"},
    {"baseEl":"11","rotate":"270"},
    {"baseEl":"18","rotate":"0"}
  ],
  "task22":[
    {"baseEl":"10","rotate":"0"},
    {"baseEl":"1","rotate":"0"},
    {"baseEl":"17","rotate":"180"}
  ],
  "task23":[
    {"baseEl":"2","rotate":"90"},
    {"baseEl":"3","rotate":"270"},
    {"baseEl":"5","rotate":"0"}
  ],
  "task24":[
    {"baseEl":"12","rotate":"0"},
    {"baseEl":"4","rotate":"270"},
    {"baseEl":"11","rotate":"180"}
  ],
  "task25":[
    {"baseEl":"1","rotate":"0"},
    {"baseEl":"9","rotate":"270"},
    {"baseEl":"8","rotate":"90"}
  ],
  "task26":[
    {"baseEl":"13","rotate":"0"},
    {"baseEl":"12","rotate":"180"}
  ],
  "task27":[
    {"baseEl":"14","rotate":"0"},
    {"baseEl":"16","rotate":"180"}
  ],
  "task28":[
    {"baseEl":"9","rotate":"270"},
    {"baseEl":"10","rotate":"180"}
  ],
  "task29":[
    {"baseEl":"5","rotate":"0"},
    {"baseEl":"1","rotate":"0"},
    {"baseEl":"7","rotate":"0"}
  ],
  "task30":[
    {"baseEl":"4","rotate":"270"},
    {"baseEl":"3","rotate":"0"},
    {"baseEl":"9","rotate":"90"}
  ],
  "task31":[
    {"baseEl":"2","rotate":"0"},
    {"baseEl":"3","rotate":"270"},
    {"baseEl":"15","rotate":"180"}
  ],
  "task32":[
    {"baseEl":"6","rotate":"0"},
    {"baseEl":"10","rotate":"180"},
    {"baseEl":"11","rotate":"180"}
  ],
  "task33":[
    {"baseEl":"10","rotate":"90"},
    {"baseEl":"17","rotate":"270"},
    {"baseEl":"18","rotate":"270"}
  ],
  "task34":[
    {"baseEl":"7","rotate":"270"},
    {"baseEl":"15","rotate":"0"}
  ],
  "task35":[
    {"baseEl":"1","rotate":"0"},
    {"baseEl":"11","rotate":"270"},
    {"baseEl":"4","rotate":"180"}
  ],
  "task36":[
    {"baseEl":"3","rotate":"270"},
    {"baseEl":"12","rotate":"270"},
    {"baseEl":"17","rotate":"270"}
  ],
  "task37":[
    {"baseEl":"14","rotate":"180"},
    {"baseEl":"2","rotate":"180"},
    {"baseEl":"18","rotate":"0"}
  ],
  "task38":[
    {"baseEl":"5","rotate":"0"},
    {"baseEl":"15","rotate":"90"},
    {"baseEl":"17","rotate":"90"}
  ],
  "task39":[
    {"baseEl":"2","rotate":"0"},
    {"baseEl":"7","rotate":"90"},
    {"baseEl":"8","rotate":"90"}
  ],
  "task40":[
    {"baseEl":"9","rotate":"90"},
    {"baseEl":"14","rotate":"180"},
    {"baseEl":"18","rotate":"270"}
  ],
  "task41":[
    {"baseEl":"5","rotate":"0"},
    {"baseEl":"9","rotate":"0"},
    {"baseEl":"11","rotate":"270"}
  ],
  "task42":[
    {"baseEl":"13","rotate":"180"},
    {"baseEl":"7","rotate":"90"},
    {"baseEl":"12","rotate":"0"}
  ],
  "task43":[
    {"baseEl":"14","rotate":"180"},
    {"baseEl":"4","rotate":"270"},
    {"baseEl":"18","rotate":"0"}
  ],
  "task44":[
    {"baseEl":"5","rotate":"0"},
    {"baseEl":"8","rotate":"270"},
    {"baseEl":"15","rotate":"0"}
  ],
  "task45":[
    {"baseEl":"13","rotate":"180"},
    {"baseEl":"15","rotate":"270"},
    {"baseEl":"12","rotate":"270"}
  ],
  "task46":[
    {"baseEl":"17","rotate":"270"},
    {"baseEl":"12","rotate":"270"},
    {"baseEl":"16","rotate":"180"}
  ],
  "task47":[
    {"baseEl":"6","rotate":"180"},
    {"baseEl":"7","rotate":"180"},
    {"baseEl":"18","rotate":"0"}
  ],
  "task48":[
    {"baseEl":"10","rotate":"180"},
    {"baseEl":"15","rotate":"270"},
    {"baseEl":"9","rotate":"0"}
  ],
  "task49":[
    {"baseEl":"2","rotate":"270"},
    {"baseEl":"14","rotate":"180"},
    {"baseEl":"8","rotate":"0"}
  ],
  "task50":[
    {"baseEl":"13","rotate":"180"},
    {"baseEl":"10","rotate":"90"},
    {"baseEl":"12","rotate":"0"}
  ]
}