<!--Задача №48-->
<!--baseElem10(r:180) + baseElem15(r:270) + baseElem9(r:0)-->

<svg width="100" height="100" xmlns="http://www.w3.org/2000/svg">
    <path d="M0,40 L100,40 L100,50 A 50 50 0 0 1 0 50" fill="mediumblue" transform="rotate(180 50 50)"/>
    <polygon points="0,100 100,0 100,100" fill="white" transform="rotate(270 50 50)"/>
    <polygon points="0,100 50,50 100,50 100,100" fill="mediumblue"/>
</svg>