<!--Задача №6-->
<!--baseElem11(r:0) + baseElem10(r:180)-->

<svg width="100" height="100" xmlns="http://www.w3.org/2000/svg">
    <path d="M50,50 L70,50 A 20 20 0 1 1 50 30" fill="red"/>

    <path d="M0,40 L100,40 L100,50 A 50 50 0 0 1 0 50" fill="mediumblue" transform="rotate(180 50 50)"/>
</svg>