<!--Задача №38-->
<!--baseElem5(r:0) + baseElem15(r:90) + baseElem17(r:90)-->

<svg width="100" height="100" xmlns="http://www.w3.org/2000/svg">
    <polygon points="50,0 100,50 50,100 0,50" fill="red"></polygon>
    <polygon points="0,100 100,0 100,100" fill="white" transform="rotate(90 50 50)"></polygon>
    <g transform="rotate(90 50 50)">
        <rect x="0" y="45" width="100" height="5" fill="yellow"></rect>
        <rect x="0" y="90" width="100" height="10" fill="yellow"></rect>
    </g>
</svg>