<!--Задача №47-->
<!--baseElem6(r:180) + baseElem7(r:180) + baseElem18(r:0)-->

<svg width="100" height="100" xmlns="http://www.w3.org/2000/svg">
    <polygon points="50,0 95,75 5,75" fill="chartreuse" transform="rotate(180 50 50)"/>
    <polygon points="0,0 50,50 100,0 100,100 0,100" fill="chartreuse" transform="rotate(180 50 50)"/>
    <path fill="dodgerblue" d="M0,0 L100,0 100,50 80,50 95,25 65,25 50,0 35,25 5,25 20,50 0,50 z"/>
</svg>