<!--Задача №4-->
<!--baseElem2(r:0) + baseElem17(r:270)-->

<svg width="100" height="100" xmlns="http://www.w3.org/2000/svg">
    <rect x="0" y="50" width="100" height="50" fill="green"></rect>

    <g transform="rotate(270 50 50)">
        <rect x="0" y="45" width="100" height="5" fill="yellow"></rect>
        <rect x="0" y="90" width="100" height="10" fill="yellow"></rect>
    </g>
</svg>

