<!--Задача №3-->
<!--baseElem3(r:180) + baseElem11(r:270)-->

<svg width="100" height="100" xmlns="http://www.w3.org/2000/svg">
    <rect x="50" y="50" width="50" height="50" fill="yellow" transform="rotate(180 50 50)"/>
    <path d="M50,50 L70,50 A 20 20 0 1 1 50 30" fill="red" transform="rotate(270 50 50)"/>
</svg>