<!--Задача №50-->
<!--baseElem13(r:180) + baseElem10(r:90) + baseElem12(r:0)-->

<svg width="100" height="100" xmlns="http://www.w3.org/2000/svg">
    <path d="M0,50 L30,50 A20,20,0,1,1,70,50 L100,50 L100,100 L0,100" fill="darkorchid" transform="rotate(180 50 50)"/>
    <path d="M0,40 L100,40 L100,50 A 50 50 0 0 1 0 50" fill="mediumblue" transform="rotate(90 50 50)"/>
    <path d="M0,50 L30,50 A20,20,0,1,0,70,50 L100,50 L100,100 L0,100" fill="darkorchid"/>
</svg>