<!--Базовый элемент №16-->

<svg width="100" height="100" xmlns="http://www.w3.org/2000/svg">
    <path fill-rule="evenodd" d="M0,100 L0,50 A50,50,0,0,1,100,50 L100,100 L0,100
                                M30,50 A20,20,0,1,1, 70,50
                                M30,50 A20,20,0,1,0, 70,50" fill="white"/>
</svg>